{
  "current": {
    "checkout_header_image": "",
    "checkout_logo_image": "",
    "checkout_logo_position": "left",
    "checkout_logo_size": "medium",
    "checkout_body_background_image": "",
    "checkout_body_background_color": "#fff",
    "checkout_input_background_color_mode": "white",
    "checkout_sidebar_background_image": "",
    "checkout_sidebar_background_color": "#fafafa",
    "checkout_heading_font": "-apple-system, BlinkMacSystemFont, 'Segoe UI', Roboto, Helvetica, Arial, sans-serif, 'Apple Color Emoji', 'Segoe UI Emoji', 'Segoe UI Symbol'",
    "checkout_body_font": "-apple-system, BlinkMacSystemFont, 'Segoe UI', Roboto, Helvetica, Arial, sans-serif, 'Apple Color Emoji', 'Segoe UI Emoji', 'Segoe UI Symbol'",
    "checkout_accent_color": "#197bbd",
    "checkout_button_color": "#197bbd",
    "checkout_error_color": "#e32c2b",
    "sections": {
      "header": {
        "type": "header",
        "settings": {
          "main_linklist": "main-menu",
          "show_announcement": true,
          "home_page_only": false,
          "text": "FREE DELIVERY ON ORDERS OVER £50",
          "link": "",
          "announcement_text_color": "#002d72",
          "announcement_bar_color": "#ffffff"
        }
      },
      "footer": {
        "type": "footer",
        "settings": {
          "footer1_linklist": "main-menu",
          "footer2_linklist": "footer",
          "footer_mobile": "footer",
          "copyright_text": "Blundstone Australia Pty Ltd. All rights reserved. Website By",
          "copyright_link": "Spaced",
          "cp_link": "https:\/\/spaced.digital\/"
        }
      },
      "1588626417335": {
        "type": "image-row",
        "blocks": {
          "1588626417335-0": {
            "type": "image",
            "settings": {
              "slider_image": "shopify:\/\/shop_images\/Blundstone_homepage_mensclassics.jpg",
              "image_title": "MEN'S CLASSICS",
              "image_url": ""
            }
          },
          "1588626417335-1": {
            "type": "image",
            "settings": {
              "slider_image": "shopify:\/\/shop_images\/Blundstone_homepage_25_off.jpg",
              "image_title": "25% off <br>selected lines",
              "image_url": ""
            }
          },
          "1588633247227": {
            "type": "image",
            "settings": {
              "slider_image": "shopify:\/\/shop_images\/Blundstone_homepage_mens_dress.jpg",
              "image_title": "Men's dress series",
              "image_url": ""
            }
          }
        },
        "block_order": [
          "1588626417335-0",
          "1588626417335-1",
          "1588633247227"
        ],
        "settings": {
          "col_select": "4"
        }
      },
      "1588635449799": {
        "type": "image-row",
        "blocks": {
          "1588635449799-0": {
            "type": "image",
            "settings": {
              "slider_image": "shopify:\/\/shop_images\/Blundstone_homepage_men.jpg",
              "image_title": "MEN",
              "image_url": "shopify:\/\/collections\/man"
            }
          },
          "1588635449799-1": {
            "type": "image",
            "settings": {
              "slider_image": "shopify:\/\/shop_images\/Blundstone_Homepage_Women.jpg",
              "image_title": "WOMEN",
              "image_url": "shopify:\/\/collections\/women-1"
            }
          }
        },
        "block_order": [
          "1588635449799-0",
          "1588635449799-1"
        ],
        "settings": {
          "col_select": "6"
        }
      },
      "1588787070859": {
        "type": "who-we-are",
        "settings": {
          "heading": "Who We Are",
          "whj_we_are_text": "Since 1870 Blundstone has made the toughest, no-nonsense footwear for work and play. Established in Hobart, Tasmania the company has grown to become one of the world's most recognisable boot brands. Our history, heritage and people have helped shape the way our boots have evolved; perhaps it takes a unique place to inspire the development of a unique boot.",
          "read_more": "read more",
          "button_url": "shopify:\/\/pages\/about",
          "who_image": "shopify:\/\/shop_images\/blundstone_home_aboutus_bay3.jpg.pagespeed.ce.3GKPIsGdeB_c5a9b7a8-117e-43da-bd48-41f6e6e7568d.jpg"
        }
      },
      "contact-template": {
        "type": "contact-template",
        "settings": {
          "contact_header_image": "shopify:\/\/shop_images\/contact-banner.jpg.pagespeed.ce.N3BSOlCdcF.jpg",
          "contact_richtext": "<p>Thank you for visiting Blundstone.co.uk. If you have any queries about our products or services please fill out the form below.<\/p><p>\n            <\/p><p>Alternatively, if you would like to get in touch via telephone, please contact our customer service department on <a href=\"#\"> 0800 132 194<\/a> Monday to Friday 9am to 5pm<\/p><p>\n<\/p><p>For Blundstone wholesale enquiries, please call <a href=\"#\">0207 371 6554<\/a> or leave us a message below.<\/p><p><\/p>",
          "contact_right_image": "shopify:\/\/shop_images\/contact-img.jpg.pagespeed.ce.TwBz05VYaD.jpg",
          "contact_page_title": "GET IN TOUCH WITH US"
        }
      },
      "blog-template": {
        "type": "blog-template",
        "settings": {
          "blog_header_image": "shopify:\/\/shop_images\/contact-banner.jpg.pagespeed.ce.N3BSOlCdcF.jpg",
          "blog_page_title": "Blog"
        }
      },
      "artical-template": {
        "type": "artical-template",
        "settings": {
          "artical_header_image": "shopify:\/\/shop_images\/contact-banner.jpg.pagespeed.ce.N3BSOlCdcF.jpg"
        }
      },
      "boot-care": {
        "type": "boot-care",
        "settings": {
          "boot_care_content": "<h3>BOOT CARE<\/h3>\n<p>Whilst our boots are designed to last, it is vital that you care for them and take action when they become dirty or scuffed to help prolong their life.<\/p>\n<p>Our boots are either composed of <strong>leather<\/strong>, <strong>suede<\/strong> or <strong>canvas<\/strong> and each need specific care in order to keep them clean and scuff free.<\/p>\n                                  <p>Leather and suede are absorbent and susceptible to water damage, whilst canvas also attracts dirt.<\/p><br>\n                                  <p>There is currently no established industry standard for classifying a waterproof product. Leather boots are not able to be 100% waterproof but we make them as waterproof as the material will allow whilst still enabling for the foot to breathe. To enhance water resistance and durability apply a suitable protector before wearing and after each clean.<\/p><br>\n<p>Follow our tips below on how to properly care for your Blundstone boots.<\/p><br>"
        }
      },
      "about-template": {
        "type": "about-template",
        "blocks": {
          "1589271138329": {
            "type": "heritage-and-history-l",
            "settings": {
              "left_content_title": "1853",
              "left_content": "<p>Brothers James and Thomas Cuthbertson set sail from England on the Coromandel ship, bound for Melbourne. However, the ship was blown off course by the Roaring Forties and landed instead in Hobart Town, Tasmania.<\/p>\n            <p>It was James Cuthbertson who settled in Tasmania, starting his own business making and importing shoes, marrying and starting a family. He bestowed his flourishing shoe business to his first-born, James II.<\/p>\n            <p>Married couple John and Eliza Blundstone arrived in Hobart around this time on the Conway ship from Derbyshire. John was also experienced in footwear manufacturing, like James Cuthbertson, and he soon set up his own shoe business in Liverpool Street, Hobart.<\/p>"
            }
          },
          "1589271175260": {
            "type": "heritage-and-history-l",
            "settings": {
              "left_content_title": "1870",
              "left_content": "Blundstone was officially established in Hobart, Tasmania."
            }
          },
          "1589271196187": {
            "type": "heritage-and-history-l",
            "settings": {
              "left_content_title": "1892",
              "left_content": "John’s shoe business was also flourishing. By 1892, he had established a factory and expanded to premises on either side of Collins Street. He also took his son, Sylvanus, into the business to carry on the family’s shoemaking legacy."
            }
          },
          "1589271280304": {
            "type": "heritage-and-history-l",
            "settings": {
              "left_content_title": "1902",
              "left_content": "John Blundstone and Son was formed, and the pair soon bought a two storey factory on Campbell Street."
            }
          },
          "1589271298097": {
            "type": "heritage-and-history-l",
            "settings": {
              "left_content_title": "1932",
              "left_content": "<p>Unfortunately, The Great Depression in Australia led to a huge downturn of profits for the now Blundstone Pty. Ltd and forced the company to be sold.<\/p><p>It was purchased by the Grandsons of James Cuthbertson, James and Thomas, in 1932. They amalgamated the manufacturing operations under the Blundstone name, and retained it for the tannery in South Hobart.<\/p>"
            }
          },
          "1589271362690": {
            "type": "heritage-and-history-r",
            "settings": {
              "right_content_title": "1979",
              "right_content": "Blundstone became the first Australian footwear manufacturer to receive a design award from the Industrial Design Council of Australia."
            }
          },
          "1589271384680": {
            "type": "heritage-and-history-r",
            "settings": {
              "right_content_title": "1986",
              "right_content": "Blundstone was the recipient of an Australian Export Award."
            }
          },
          "1589271422896": {
            "type": "heritage-and-history-r",
            "settings": {
              "right_content_title": "1989",
              "right_content": "Blundstone started manufacturing waterproof injection moulded footwear (gumboots)."
            }
          },
          "1589271449485": {
            "type": "heritage-and-history-r",
            "settings": {
              "right_content_title": "2000",
              "right_content": "Blundstone acquired another footwear company named John Bull Footwear. This was founded in New Zealand in 1934, and sells tough, comfortable boots for work and play."
            }
          },
          "1589271470048": {
            "type": "heritage-and-history-r",
            "settings": {
              "right_content_title": "2004",
              "right_content": "Blundstone’s legendary comfort evolved with the introduction of SPS x~tra into our footwear."
            }
          },
          "1589271488443": {
            "type": "heritage-and-history-r",
            "settings": {
              "right_content_title": "2010",
              "right_content": "Blundstone released the Xfoot range of premium safety boots, featuring revolutionary underfoot comfort and SPS MAX."
            }
          },
          "1589271527815": {
            "type": "heritage-and-history-r",
            "settings": {
              "right_content_title": "2011",
              "right_content": "Blundstone became the official naming rights sponsor of the world-class cricket facility at Bellerive in southern Tasmania, now known as the Blundstone Arena, Bellerive."
            }
          },
          "1589271544437": {
            "type": "heritage-and-history-r",
            "settings": {
              "right_content_title": "TODAY",
              "right_content": "Blundstone continues to expand around the globe, currently selling comfortable, unmistakable Blundstone designs to over 50 countries across five continents. We are constantly updating our shoe’s technology, all for the pleasure of our customer."
            }
          }
        },
        "block_order": [
          "1589271138329",
          "1589271175260",
          "1589271196187",
          "1589271280304",
          "1589271298097",
          "1589271362690",
          "1589271384680",
          "1589271422896",
          "1589271449485",
          "1589271470048",
          "1589271488443",
          "1589271527815",
          "1589271544437"
        ],
        "settings": {
          "about_header_image": "shopify:\/\/shop_images\/aboutus_banner.jpg.pagespeed.ce.bzd6qlCCtm.jpg",
          "about_page_title": "Who We Are",
          "about_content_title": "BUILT TO GO ANYWHERE, DO ANYTHING, <br>AND LOOK GREAT EVERY STEP OF THE WAY",
          "about_media_content_image": "shopify:\/\/shop_images\/blundstone_aboutus_1-bench.jpg",
          "about_media_content_title_1": "Our History",
          "about_media_content_1": "Since 1870 Blundstone has made the toughest, no-nonsense footwear for work and play. Established in Hobart, Tasmania the company has grown to become one of the world's most recognisable boot brands. Our history, heritage and people have helped shape the way our boots have evolved; perhaps it takes a unique place to inspire the development of a unique boot.",
          "about_media_content_title_2": "Our Products",
          "about_media_content_2": "Hobart is still the home of Blundstone, and our development team remain dedicated to innovation in design and production. As a consequence of their dedication, Blundstone now oversees a global supply chain bringing together the best ideas, components and designs in the creation of our unique product range, from the iconic elastic-sided boots to safety footwear and the women's heeled boot. With a commitment to sustainable development, we maximise the use of recycled and recyclable materials in our manufacturing and minimise the use of raw materials, chemicals and fossil fuels. It’s a sustainable, living legacy.",
          "media_coloum_full_image": "shopify:\/\/shop_images\/blundstone_aboutus_3_materials.jpg",
          "media_coloum_image": "shopify:\/\/shop_images\/blundstone_aboutus_2-1.jpg",
          "media_coloum_title": "Our Community",
          "media_coloum_content": "<p>We value all of our Blundstone community. They teach and inspire us in our ongoing research and development. Our improvements in comfort, protection, performance and aesthetics are a direct result of their feedback, and why Blundstone has gone from strength to strength.<\/p><p>The Blundstone boots we produce today are just as tough as they’ve always been, with a focus on comfort, they are designed to go anywhere, do anything and look great every step of the way.<\/p><p>They are more than just boots. They are Blundstones.<\/p>",
          "heritage_title": "History & Heritage",
          "heritage_image": "shopify:\/\/shop_images\/ev.jpg.pagespeed.ce.54RXP1DIkR.jpg",
          "heritage_content": "<p>Blundstone holds quality and comfort at the heart of the company.<\/p>\n<p>Despite becoming one of the world’s most recognisable boot brands, the company still remains Tasmanian and we have no plans to change.<\/p><p>Let us guide you through Blundstone's history, and how we became one of the most successful boot brands today.<\/p>"
        }
      },
      "1589275203837": {
        "type": "category-product",
        "blocks": {
          "1589275203837-0": {
            "type": "image",
            "settings": {
              "category_image": "shopify:\/\/shop_images\/Blundstone_homepage_men.jpg",
              "category_title": "Brand new",
              "product_image": "shopify:\/\/shop_images\/Untitled_9b7fb171-4f54-473e-8946-15dbf3f30447.png",
              "product_title": "BLUNDSTONE #1464 GREY PEBBLE",
              "product_url": "shopify:\/\/products\/blundstone-1464-grey-pebble",
              "product_price": "£160.00",
              "product_position": "right"
            }
          },
          "1589275203837-1": {
            "type": "image",
            "settings": {
              "category_image": "shopify:\/\/shop_images\/Blundstone_Homepage_Women.jpg",
              "category_title": "BRAND NEW",
              "product_image": "shopify:\/\/shop_images\/Untitled_9b7fb171-4f54-473e-8946-15dbf3f30447.png",
              "product_title": "BLUNDSTONE #1464 GREY PEBBLE",
              "product_url": "shopify:\/\/products\/blundstone-1464-grey-pebble",
              "product_price": "£160.00",
              "product_position": "left"
            }
          }
        },
        "block_order": [
          "1589275203837-0",
          "1589275203837-1"
        ],
        "settings": {}
      },
      "1589300423123": {
        "type": "bootsellers",
        "blocks": {
          "1589301835975": {
            "type": "block-1",
            "settings": {
              "tab_title": "Women",
              "all_collection": "women-1"
            }
          },
          "1589822172618": {
            "type": "block-1",
            "settings": {
              "tab_title": "Men",
              "all_collection": "man"
            }
          },
          "1589301848942": {
            "type": "block-1",
            "settings": {
              "tab_title": "Kids",
              "all_collection": "kids"
            }
          }
        },
        "block_order": [
          "1589301835975",
          "1589822172618",
          "1589301848942"
        ],
        "settings": {
          "bootseller_title": "BESTSELLERS"
        }
      },
      "faq-template": {
        "type": "faq-template",
        "blocks": {
          "1589381748868": {
            "type": "title",
            "settings": {
              "faq_title": "DELIVERY & ORDERS"
            }
          },
          "1589381765743": {
            "type": "question_answer",
            "settings": {
              "questions": "Who do I contact about my online order?",
              "answer": "You can contact our Mail Order team, who will be happy to help with your query. Please quote your order number so we could access your details.\nBy e-mail:\nYou can send us an email to: info@blundstone.co.uk\nBy phone:\nYou can speak to us during regular office hours from 9am to 5pm Monday to Friday on 0800 132 194.\nBy post:\nCentral Trade Ltd\nBlundstone Customer Services\n1 Addison Bridge Place\nLondon W14 8XP"
            }
          },
          "1589381819393": {
            "type": "question_answer",
            "settings": {
              "questions": "How do I track my online order?",
              "answer": "Sign into your account here and look under 'Current Orders' where you will be able to view all open orders and the stage they are at."
            }
          },
          "1589381840683": {
            "type": "question_answer",
            "settings": {
              "questions": "How long will it take for my order to arrive?",
              "answer": "We normally quote up to 3 to 5 working days for delivery. However, it might take up to 7 or more days during our busy times in the autumn. If there is going to be a delay in dispatching your order, you will be contacted by us. For urgent orders it is best to contact us by telephone and we will let you know how we can help."
            }
          },
          "1589381883144": {
            "type": "title",
            "settings": {
              "faq_title": "PAYMENT"
            }
          },
          "1589381892834": {
            "type": "question_answer",
            "settings": {
              "questions": "What will appear on my credit card or bank account statement?",
              "answer": "The name that appears on your credit card or bank account statement when we charge you is 'Central Trade Ltd'"
            }
          },
          "1589381936110": {
            "type": "title",
            "settings": {
              "faq_title": "REFUND & EXCHANGE"
            }
          },
          "1589381956285": {
            "type": "question_answer",
            "settings": {
              "questions": "I am going away for a month. Can I return the item when I get back?",
              "answer": "Our Returns Policy for mail order states that goods should be returned within 30 days of receipt. It is at our discretion to accept goods outside the Returns Policy. Please contact us in advance and we will let you know how we can help."
            }
          },
          "1589382000106": {
            "type": "question_answer",
            "settings": {
              "questions": "Can I return items without proof of purchase?",
              "answer": "Unfortunately, we do require some form of proof of purchase for all returns even those gifted. We are an independent retail company both within the UK and internationally and we can only accept returns for goods bought directly. We do have access to all mail-order sales records, and even if you cannot provide us with the actual packing slip as proof of purchase, please quote the mail order number or at least provide us with the contact details of the purchaser and we will do our best to help. In instances where the original payment card cannot be provided, any refund will be at the discretion of the manager. However, we will be happy to process an exchange for the same amount."
            }
          },
          "1589382070213": {
            "type": "question_answer",
            "settings": {
              "questions": "How long will it take to process a refund or exchange?",
              "answer": "We endeavour to process a refund or exchange as quickly as possible. Refunds usually take between 5-7 working days but during exceptionally busy sale periods or peaks in the seasonal cycle it may take up to 14 working days to process. On exchanges, expect up to 14 working days as standard. Please note that it may take another 3-5 working days for a refund to show on your statement depending on who you bank with."
            }
          },
          "1589382110352": {
            "type": "question_answer",
            "settings": {
              "questions": "What is the address for returns?",
              "answer": "If you are returning goods for refund or exchange please send them to:\nCentral Trade Ltd\nBlundstone Mail Order\n1 Addison Bridge Place\nLondon W14 8XP"
            }
          },
          "1589382145800": {
            "type": "title",
            "settings": {
              "faq_title": "PRIVACY & SECURITY"
            }
          },
          "1589382150869": {
            "type": "question_answer",
            "settings": {
              "questions": "Why do you want my personal details such as telephone number and e-mail?",
              "answer": "We ask for these details so we could contact you in case there is a problem with your order. For example, we run out of stock, we are unable to take payment, or there is a delivery problem. We might also contact you via e-mail with special offers and information. We do not make e-mail addresses or telephone numbers available to other companies."
            }
          },
          "1589382192273": {
            "type": "title",
            "settings": {
              "faq_title": "FIT & SIZING"
            }
          },
          "1589382214381": {
            "type": "question_answer",
            "settings": {
              "questions": "What happens if I don't like the items or they do not fit?",
              "answer": "Please follow our Returns Policy available to view on our website. If you send the item back to us in its original condition and within the stated period, you can either get an exchange if the item is in stock or receive a full refund. Terms and conditions apply."
            }
          },
          "1589382249541": {
            "type": "question_answer",
            "settings": {
              "questions": "I'm confused about sizing, how do I know my size?",
              "answer": "Sizes might vary from style to style and much depends on the shape of each individual’s feet. The website provides a Size Guide to assist with international conversions and can be found for every footwear selected. Remember, we do accept returns should a fit not be suitable."
            }
          },
          "1589382266831": {
            "type": "title",
            "settings": {
              "faq_title": "WEATHERPROOFING"
            }
          },
          "1589382277971": {
            "type": "question_answer",
            "settings": {
              "questions": "What is the difference between water-resistant and water-repellent?",
              "answer": "Water-resistant products have the lowest level of resilience offering some water protection. Sometimes the material has been coated with a very light substance making water penetration more difficult and is usually able to withstand a light rain shower.  Water-repellent products provide greater protection than those that are water-resistant but not sufficient to be labelled waterproof. Water-repellent products are usually coated with a more resilient substance to make water penetration even more difficult."
            }
          },
          "1589382298050": {
            "type": "question_answer",
            "settings": {
              "questions": "Why do my 'waterproof' boots leak?",
              "answer": "erproof but we make them as waterproof as the material will allow whilst still enabling for the foot to breathe. Blundstone’s unique construction using a limited number of seams and stitching with waterproof thread means there are fewer places for water to get in. View the options here.  To enhance water resistance and durability apply a suitable protector before wearing and after each clean. View the options here."
            }
          }
        },
        "block_order": [
          "1589381748868",
          "1589381765743",
          "1589381819393",
          "1589381840683",
          "1589381883144",
          "1589381892834",
          "1589381936110",
          "1589381956285",
          "1589382000106",
          "1589382070213",
          "1589382110352",
          "1589382145800",
          "1589382150869",
          "1589382192273",
          "1589382214381",
          "1589382249541",
          "1589382266831",
          "1589382277971",
          "1589382298050"
        ],
        "settings": {}
      },
      "1589530619789": {
        "type": "slider",
        "blocks": {
          "1589530619789-0": {
            "type": "image",
            "settings": {
              "hero_slider_image": "shopify:\/\/shop_images\/blundstone_slider_1.jpg",
              "hero_image_title": "THE CLASSICS",
              "image_button_text": "View product",
              "image_button_url": "shopify:\/\/collections\/man"
            }
          },
          "1589530707981": {
            "type": "image",
            "settings": {
              "hero_slider_image": "shopify:\/\/shop_images\/Blundstone_slider2.jpg",
              "hero_image_title": "THE ORIGINAL",
              "image_button_text": "View product",
              "image_button_url": "shopify:\/\/collections\/man"
            }
          },
          "1589530723648": {
            "type": "image",
            "settings": {
              "hero_slider_image": "shopify:\/\/shop_images\/blundstone_slider3.jpg",
              "hero_image_title": "END OF WINTER SALE",
              "image_button_text": "View product",
              "image_button_url": "shopify:\/\/collections\/man"
            }
          }
        },
        "block_order": [
          "1589530619789-0",
          "1589530707981",
          "1589530723648"
        ],
        "settings": {
          "mobile_image_title": "THE CLASSICS",
          "Mobile_image": "shopify:\/\/shop_images\/blundstone_slider_1.jpg",
          "Mobile_image_url": "https:\/\/blundstoneuk.myshopify.com\/"
        }
      },
      "cleaning-leather": {
        "type": "cleaning-leather",
        "settings": {
          "cleaning_leather": "<h3>Cleaning Leather<\/h3>\n<p>Most of our boots are composed of leather, here’s how to clean them:<\/p>\n<ul>\n<li>First, scrub off any caked on dirt on your boots with a soft bristled brush\n<\/li>\n                                    <li>Apply a small amount of leather cleaner onto a damp cloth and rub onto the shoe in circular motions. Make sure that your cloth is not too wet as too much water will harden the leather and make it crack.<\/li>\n                                    <li>Wipe away the lather and leave your boots to air dry. Please ensure that your boots are away from direct sunlight or any central heating installations, as any exposure will dry out the leather. It can even cause the leather to pull away from the sole.<\/li>\n<li>Dress the leather with a polish, spray or cream to help protect your boots against further damage.<\/li>\n                                    <li>If you have any water stains on your leather boots, combine equal parts of white wine vinegar and water and clean the stain away with this solution.<\/li>\n<\/ul>"
        }
      },
      "cleaning-canvas": {
        "type": "cleaning-canvas",
        "settings": {
          "cleaning_canvas": "<h3>Cleaning Canvas<\/h3>\n<p>Here’s our advice on how to keep your canvas Blundstone boots in top shape:<\/p>\n<ul>\n<li>Scrub away any patches of dirt with a soft bristled brush. Or, if you have one lying around, you can even use an <strong>old toothbrush<\/strong>.<\/li>\n<li>Put a small amount of <strong>laundry detergent<\/strong> or <strong>washing up liquid<\/strong> into a bowl and fill with warm water.<\/li>\n<li>Dip a cloth or soft bristled brush into the water and clean the entire surface of the boot.<\/li>\n<li>Rinse the shoe with <strong>cold water<\/strong>. If any soap suds are left they will stain when dry, so make sure the shoes are thoroughly rinsed off.<\/li>\n<li>Put some <strong>tissue<\/strong> paper inside your boots and leave them to air dry, to help maintain their shape when drying.<\/li>\n                                    <li>\n<strong>Never<\/strong> put your canvas Blundstones in a tumble dryer or they risk shrivelling and damaging the sole.<\/li>\n<\/ul>"
        }
      },
      "cleaning-suede": {
        "type": "cleaning-suede",
        "settings": {
          "cleaning_suede": "<h3>Cleaning Suede<\/h3>\n<p>If you’ve opted for a pair of suede Blunnies, here are our top tips for cleaning them:<\/p>\n<ul>\n<li>Use a <strong>suede brush<\/strong> to scrub off any surface stains or dirt. Remember to clean with the grain of the fabric and not against it, as this will cause further damage to the suede.<\/li>\n                                    <li>If you have any <strong>scuffs<\/strong>, remove them with a <strong>gum eraser<\/strong>. Simply rub the scuff and wipe away the rubber debris.<\/li>\n<li>Dampen the suede brush with a little water and pour a small amount of <strong>suede and leather cleaner<\/strong> or a gentle <strong>baby shampoo<\/strong> on it. Then clean the shoe, focussing your attention on any particularly stained spots.<\/li>\n<li>Dab the shoes with a clean towel to <strong>remove the soap spuds<\/strong>.<\/li>\n                                    <li>Stuff your boot with some <strong>tissue paper<\/strong> and leave to <strong>air dry<\/strong>. The tissue paper will prevent the boot from losing its shape, and air drying will stop the suede from drying out.<\/li>\n<li>Once dry, apply a <strong>water and stain repellent<\/strong> on the shoe to prevent them from further damage.<\/li>\n<\/ul>"
        }
      },
      "extra-tips": {
        "type": "extra-tips",
        "settings": {
          "extra_tips": "<h3>Extra Tips<\/h3>\n<ul>\n<li>\n<strong>Never<\/strong> dry your boots by a fire or artificial heat source, as this will cause the leather to harden, shrink and crack. It can even cause the leather to pull away from the sole. Always dry your boots naturally at room temperature.<\/li>\n                                    <li>Always store your boots in a <strong>dry, cool place<\/strong> away from sunlight or any heat which will tarnish the leather.<\/li>\n                                    <li>You should use a <strong>leather conditioner<\/strong> on your boots whenever they need them. If your boots are looking a little scuffed and worn, always remember to use a conditioner.<\/li>\n                                    <li>Similarly, you should use a <strong>suede protector<\/strong> on your suede boots when they are looking worn, and before you wear them on a rainy or sunny day.<\/li>\n                                    <li>Avoid exposing your boots to <strong>chemical contamination<\/strong>. Strong acids and alkalis will do irreparable damage on leather, whilst commonplace substances like milk and salt are also highly damaging. In the event of exposure, clean the boots immediately.<\/li>\n<\/ul>"
        }
      },
      "collection-template": {
        "type": "collection-template",
        "settings": {}
      }
    },
    "content_for_index": [
      "1589530619789",
      "1588635449799",
      "1588626417335",
      "1589275203837",
      "1589300423123",
      "1588787070859"
    ]
  },
  "presets": {
    "Default": {}
  }
}